%YAML 1.1
%TAG !u! tag:unity3d.com,2011:
--- !u!1001 &1869691810304590651
PrefabInstance:
  m_ObjectHideFlags: 0
  serializedVersion: 2
  m_Modification:
    m_TransformParent: {fileID: 0}
    m_Modifications:
    - target: {fileID: 3950894619588891752, guid: d03fe1b35faaca342a1f2b1544069ce3,
        type: 3}
      propertyPath: m_Name
      value: ParrySuccessParticleR
      objectReference: {fileID: 0}
    - target: {fileID: 1750809307647620087, guid: d03fe1b35faaca342a1f2b1544069ce3,
        type: 3}
      propertyPath: m_LocalPosition.x
      value: 0
      objectReference: {fileID: 0}
    - target: {fileID: 1750809307647620087, guid: d03fe1b35faaca342a1f2b1544069ce3,
        type: 3}
      propertyPath: m_LocalPosition.y
      value: 0
      objectReference: {fileID: 0}
    - target: {fileID: 1750809307647620087, guid: d03fe1b35faaca342a1f2b1544069ce3,
        type: 3}
      propertyPath: m_LocalPosition.z
      value: 0
      objectReference: {fileID: 0}
    - target: {fileID: 1750809307647620087, guid: d03fe1b35faaca342a1f2b1544069ce3,
        type: 3}
      propertyPath: m_LocalRotation.x
      value: -0
      objectReference: {fileID: 0}
    - target: {fileID: 1750809307647620087, guid: d03fe1b35faaca342a1f2b1544069ce3,
        type: 3}
      propertyPath: m_LocalRotation.y
      value: 0
      objectReference: {fileID: 0}
    - target: {fileID: 1750809307647620087, guid: d03fe1b35faaca342a1f2b1544069ce3,
        type: 3}
      propertyPath: m_LocalRotation.z
      value: -0.07497853
      objectReference: {fileID: 0}
    - target: {fileID: 1750809307647620087, guid: d03fe1b35faaca342a1f2b1544069ce3,
        type: 3}
      propertyPath: m_LocalRotation.w
      value: -0.9971852
      objectReference: {fileID: 0}
    - target: {fileID: 1750809307647620087, guid: d03fe1b35faaca342a1f2b1544069ce3,
        type: 3}
      propertyPath: m_RootOrder
      value: 0
      objectReference: {fileID: 0}
    - target: {fileID: 1750809307647620087, guid: d03fe1b35faaca342a1f2b1544069ce3,
        type: 3}
      propertyPath: m_LocalEulerAnglesHint.x
      value: 0
      objectReference: {fileID: 0}
    - target: {fileID: 1750809307647620087, guid: d03fe1b35faaca342a1f2b1544069ce3,
        type: 3}
      propertyPath: m_LocalEulerAnglesHint.y
      value: 0
      objectReference: {fileID: 0}
    - target: {fileID: 1750809307647620087, guid: d03fe1b35faaca342a1f2b1544069ce3,
        type: 3}
      propertyPath: m_LocalEulerAnglesHint.z
      value: 368.6
      objectReference: {fileID: 0}
    - target: {fileID: 1595654819150793570, guid: d03fe1b35faaca342a1f2b1544069ce3,
        type: 3}
      propertyPath: ForceModule.y.scalar
      value: 40
      objectReference: {fileID: 0}
    - target: {fileID: 1595654819150793570, guid: d03fe1b35faaca342a1f2b1544069ce3,
        type: 3}
      propertyPath: looping
      value: 0
      objectReference: {fileID: 0}
    m_RemovedComponents: []
  m_SourcePrefab: {fileID: 100100000, guid: d03fe1b35faaca342a1f2b1544069ce3, type: 3}
