%YAML 1.1
%TAG !u! tag:unity3d.com,2011:
--- !u!1001 &5524060032302308094
PrefabInstance:
  m_ObjectHideFlags: 0
  serializedVersion: 2
  m_Modification:
    m_TransformParent: {fileID: 0}
    m_Modifications:
    - target: {fileID: 1113179536405094, guid: bb07c2ab704a322449a638242ad13bab, type: 3}
      propertyPath: m_Name
      value: SlashRL_swarmer
      objectReference: {fileID: 0}
    - target: {fileID: 4430432196746988, guid: bb07c2ab704a322449a638242ad13bab, type: 3}
      propertyPath: m_LocalPosition.x
      value: 0
      objectReference: {fileID: 0}
    - target: {fileID: 4430432196746988, guid: bb07c2ab704a322449a638242ad13bab, type: 3}
      propertyPath: m_LocalPosition.y
      value: 0
      objectReference: {fileID: 0}
    - target: {fileID: 4430432196746988, guid: bb07c2ab704a322449a638242ad13bab, type: 3}
      propertyPath: m_LocalPosition.z
      value: 0
      objectReference: {fileID: 0}
    - target: {fileID: 4430432196746988, guid: bb07c2ab704a322449a638242ad13bab, type: 3}
      propertyPath: m_LocalRotation.x
      value: -0
      objectReference: {fileID: 0}
    - target: {fileID: 4430432196746988, guid: bb07c2ab704a322449a638242ad13bab, type: 3}
      propertyPath: m_LocalRotation.y
      value: -0
      objectReference: {fileID: 0}
    - target: {fileID: 4430432196746988, guid: bb07c2ab704a322449a638242ad13bab, type: 3}
      propertyPath: m_LocalRotation.z
      value: -0
      objectReference: {fileID: 0}
    - target: {fileID: 4430432196746988, guid: bb07c2ab704a322449a638242ad13bab, type: 3}
      propertyPath: m_LocalRotation.w
      value: 1
      objectReference: {fileID: 0}
    - target: {fileID: 4430432196746988, guid: bb07c2ab704a322449a638242ad13bab, type: 3}
      propertyPath: m_RootOrder
      value: 0
      objectReference: {fileID: 0}
    - target: {fileID: 4430432196746988, guid: bb07c2ab704a322449a638242ad13bab, type: 3}
      propertyPath: m_LocalEulerAnglesHint.x
      value: 0
      objectReference: {fileID: 0}
    - target: {fileID: 4430432196746988, guid: bb07c2ab704a322449a638242ad13bab, type: 3}
      propertyPath: m_LocalEulerAnglesHint.y
      value: 0
      objectReference: {fileID: 0}
    - target: {fileID: 4430432196746988, guid: bb07c2ab704a322449a638242ad13bab, type: 3}
      propertyPath: m_LocalEulerAnglesHint.z
      value: 0
      objectReference: {fileID: 0}
    - target: {fileID: 96459507597473316, guid: bb07c2ab704a322449a638242ad13bab,
        type: 3}
      propertyPath: m_Parameters.colorGradient.key0.g
      value: 0.87289613
      objectReference: {fileID: 0}
    - target: {fileID: 96459507597473316, guid: bb07c2ab704a322449a638242ad13bab,
        type: 3}
      propertyPath: m_Parameters.colorGradient.key0.b
      value: 0
      objectReference: {fileID: 0}
    - target: {fileID: 96459507597473316, guid: bb07c2ab704a322449a638242ad13bab,
        type: 3}
      propertyPath: m_Parameters.colorGradient.key1.r
      value: 1
      objectReference: {fileID: 0}
    - target: {fileID: 96459507597473316, guid: bb07c2ab704a322449a638242ad13bab,
        type: 3}
      propertyPath: m_Parameters.colorGradient.key1.g
      value: 0.41037738
      objectReference: {fileID: 0}
    - target: {fileID: 96459507597473316, guid: bb07c2ab704a322449a638242ad13bab,
        type: 3}
      propertyPath: m_Parameters.colorGradient.key1.b
      value: 0.41037738
      objectReference: {fileID: 0}
    - target: {fileID: 96459507597473316, guid: bb07c2ab704a322449a638242ad13bab,
        type: 3}
      propertyPath: m_SortingLayerID
      value: 662355237
      objectReference: {fileID: 0}
    - target: {fileID: 96459507597473316, guid: bb07c2ab704a322449a638242ad13bab,
        type: 3}
      propertyPath: m_SortingLayer
      value: 1
      objectReference: {fileID: 0}
    - target: {fileID: 96459507597473316, guid: bb07c2ab704a322449a638242ad13bab,
        type: 3}
      propertyPath: m_SortingOrder
      value: 10
      objectReference: {fileID: 0}
    - target: {fileID: 114951438338356402, guid: bb07c2ab704a322449a638242ad13bab,
        type: 3}
      propertyPath: damage
      value: 0.5
      objectReference: {fileID: 0}
    - target: {fileID: 114951438338356402, guid: bb07c2ab704a322449a638242ad13bab,
        type: 3}
      propertyPath: attackSpeed
      value: 2
      objectReference: {fileID: 0}
    - target: {fileID: 58234583965158872, guid: bb07c2ab704a322449a638242ad13bab,
        type: 3}
      propertyPath: m_Radius
      value: 0.65
      objectReference: {fileID: 0}
    m_RemovedComponents: []
  m_SourcePrefab: {fileID: 100100000, guid: bb07c2ab704a322449a638242ad13bab, type: 3}
