%YAML 1.1
%TAG !u! tag:unity3d.com,2011:
--- !u!1001 &3012167218253648108
PrefabInstance:
  m_ObjectHideFlags: 0
  serializedVersion: 2
  m_Modification:
    m_TransformParent: {fileID: 0}
    m_Modifications:
    - target: {fileID: 1925268723465440, guid: 1fdd614c99a51ce489091d5c9f52dd44, type: 3}
      propertyPath: m_Name
      value: SlashRLParry_swarmer
      objectReference: {fileID: 0}
    - target: {fileID: 4908262337037798, guid: 1fdd614c99a51ce489091d5c9f52dd44, type: 3}
      propertyPath: m_LocalPosition.x
      value: 0
      objectReference: {fileID: 0}
    - target: {fileID: 4908262337037798, guid: 1fdd614c99a51ce489091d5c9f52dd44, type: 3}
      propertyPath: m_LocalPosition.y
      value: 0
      objectReference: {fileID: 0}
    - target: {fileID: 4908262337037798, guid: 1fdd614c99a51ce489091d5c9f52dd44, type: 3}
      propertyPath: m_LocalPosition.z
      value: 0
      objectReference: {fileID: 0}
    - target: {fileID: 4908262337037798, guid: 1fdd614c99a51ce489091d5c9f52dd44, type: 3}
      propertyPath: m_LocalRotation.x
      value: -0
      objectReference: {fileID: 0}
    - target: {fileID: 4908262337037798, guid: 1fdd614c99a51ce489091d5c9f52dd44, type: 3}
      propertyPath: m_LocalRotation.y
      value: -0
      objectReference: {fileID: 0}
    - target: {fileID: 4908262337037798, guid: 1fdd614c99a51ce489091d5c9f52dd44, type: 3}
      propertyPath: m_LocalRotation.z
      value: -0
      objectReference: {fileID: 0}
    - target: {fileID: 4908262337037798, guid: 1fdd614c99a51ce489091d5c9f52dd44, type: 3}
      propertyPath: m_LocalRotation.w
      value: 1
      objectReference: {fileID: 0}
    - target: {fileID: 4908262337037798, guid: 1fdd614c99a51ce489091d5c9f52dd44, type: 3}
      propertyPath: m_RootOrder
      value: 0
      objectReference: {fileID: 0}
    - target: {fileID: 4908262337037798, guid: 1fdd614c99a51ce489091d5c9f52dd44, type: 3}
      propertyPath: m_LocalEulerAnglesHint.x
      value: 0
      objectReference: {fileID: 0}
    - target: {fileID: 4908262337037798, guid: 1fdd614c99a51ce489091d5c9f52dd44, type: 3}
      propertyPath: m_LocalEulerAnglesHint.y
      value: 0
      objectReference: {fileID: 0}
    - target: {fileID: 4908262337037798, guid: 1fdd614c99a51ce489091d5c9f52dd44, type: 3}
      propertyPath: m_LocalEulerAnglesHint.z
      value: 0
      objectReference: {fileID: 0}
    - target: {fileID: 96759248023088964, guid: 1fdd614c99a51ce489091d5c9f52dd44,
        type: 3}
      propertyPath: m_Parameters.colorGradient.key0.g
      value: 0.87289613
      objectReference: {fileID: 0}
    - target: {fileID: 96759248023088964, guid: 1fdd614c99a51ce489091d5c9f52dd44,
        type: 3}
      propertyPath: m_Parameters.colorGradient.key0.b
      value: 0
      objectReference: {fileID: 0}
    - target: {fileID: 96759248023088964, guid: 1fdd614c99a51ce489091d5c9f52dd44,
        type: 3}
      propertyPath: m_Parameters.colorGradient.key1.r
      value: 1
      objectReference: {fileID: 0}
    - target: {fileID: 96759248023088964, guid: 1fdd614c99a51ce489091d5c9f52dd44,
        type: 3}
      propertyPath: m_Parameters.colorGradient.key1.g
      value: 0.41037738
      objectReference: {fileID: 0}
    - target: {fileID: 96759248023088964, guid: 1fdd614c99a51ce489091d5c9f52dd44,
        type: 3}
      propertyPath: m_Parameters.colorGradient.key1.b
      value: 0.41037738
      objectReference: {fileID: 0}
    - target: {fileID: 58149757831019912, guid: 1fdd614c99a51ce489091d5c9f52dd44,
        type: 3}
      propertyPath: m_Radius
      value: 0.65
      objectReference: {fileID: 0}
    - target: {fileID: 198168932722578026, guid: 1fdd614c99a51ce489091d5c9f52dd44,
        type: 3}
      propertyPath: SubModule.subEmitters.Array.data[0].emitter
      value: 
      objectReference: {fileID: 3102071011292129270}
    m_RemovedComponents: []
  m_SourcePrefab: {fileID: 100100000, guid: 1fdd614c99a51ce489091d5c9f52dd44, type: 3}
--- !u!198 &3102071011292129270 stripped
ParticleSystem:
  m_CorrespondingSourceObject: {fileID: 198610308654135066, guid: 1fdd614c99a51ce489091d5c9f52dd44,
    type: 3}
  m_PrefabInstance: {fileID: 3012167218253648108}
  m_PrefabAsset: {fileID: 0}
