%YAML 1.1
%TAG !u! tag:unity3d.com,2011:
--- !u!1 &2905397772639716118
GameObject:
  m_ObjectHideFlags: 0
  m_CorrespondingSourceObject: {fileID: 0}
  m_PrefabInstance: {fileID: 0}
  m_PrefabAsset: {fileID: 0}
  serializedVersion: 6
  m_Component:
  - component: {fileID: 8520482282297339188}
  - component: {fileID: 4603421251259840933}
  - component: {fileID: 8090180049891900117}
  - component: {fileID: 6959059723096168660}
  - component: {fileID: 2352865161526626103}
  m_Layer: 0
  m_Name: Wall_template
  m_TagString: Untagged
  m_Icon: {fileID: 0}
  m_NavMeshLayer: 0
  m_StaticEditorFlags: 4294967295
  m_IsActive: 1
--- !u!4 &8520482282297339188
Transform:
  m_ObjectHideFlags: 0
  m_CorrespondingSourceObject: {fileID: 0}
  m_PrefabInstance: {fileID: 0}
  m_PrefabAsset: {fileID: 0}
  m_GameObject: {fileID: 2905397772639716118}
  m_LocalRotation: {x: 0, y: 0, z: 0, w: 1}
  m_LocalPosition: {x: 4, y: 0, z: 0}
  m_LocalScale: {x: 1.05, y: 1.05, z: 1}
  m_Children: []
  m_Father: {fileID: 0}
  m_RootOrder: 0
  m_LocalEulerAnglesHint: {x: 0, y: 0, z: 0}
--- !u!114 &4603421251259840933
MonoBehaviour:
  m_ObjectHideFlags: 0
  m_CorrespondingSourceObject: {fileID: 0}
  m_PrefabInstance: {fileID: 0}
  m_PrefabAsset: {fileID: 0}
  m_GameObject: {fileID: 2905397772639716118}
  m_Enabled: 1
  m_EditorHideFlags: 0
  m_Script: {fileID: 11500000, guid: 409a53c2fc720400bb482962c5563548, type: 3}
  m_Name: 
  m_EditorClassIdentifier: 
  settings:
    _blur: 0
    _endAngle: 360
    _fillColor: {r: 0.3490566, g: 0.3490566, b: 0.3490566, a: 1}
    _fillColor2: {r: 0.94509804, g: 0.76862746, b: 0.05882353, a: 1}
    _fillOffset: {x: 0, y: 0}
    _fillPathLoops: 0
    _fillRotation: 0
    _fillScale: {x: 1, y: 1}
    _fillTexture: {fileID: 2800000, guid: 832dc5a2501052b4d8f685a7cda3b30b, type: 3}
    _fillType: 2
    _gradientAxis: 0
    _gradientStart: 0
    _gradientType: 0
    _gridSize: 0.5
    _innerCutout: {x: 0, y: 0}
    _invertArc: 0
    _lineSize: 0.1
    _obsoleteNumSides: -1
    _outlineColor: {r: 0.18867922, g: 0.18867922, b: 0.18867922, a: 1}
    _outlineSize: 0.35
    _pathSegments:
    - p0: {x: -0.3, y: 0, z: 0}
      p1: {x: 0, y: 0, z: 0}
      p2: {x: 0.3, y: 0, z: 0}
    _pathThickness: 0.1
    _polygonPreset: 4
    _polyVertices:
    - {x: -0.000000021855694, y: 0.5}
    - {x: -0.4330127, y: 0.25000003}
    - {x: -0.43301263, y: -0.2500001}
    - {x: 0.0000000059624403, y: -0.5}
    - {x: 0.43301278, y: -0.24999988}
    - {x: 0.4330127, y: 0.25000003}
    _roundness: 0
    _roundnessBottomLeft: 0
    _roundnessBottomRight: 0
    _roundnessPerCorner: 0
    _roundnessTopLeft: 0
    _roundnessTopRight: 0
    _shapeType: 2
    _startAngle: 0
    _triangleOffset: 0.5
    _usePolygonMap: 0
  wasConverted: 0
  preConvertedScale: {x: 0, y: 0, z: 0}
--- !u!212 &8090180049891900117
SpriteRenderer:
  m_ObjectHideFlags: 0
  m_CorrespondingSourceObject: {fileID: 0}
  m_PrefabInstance: {fileID: 0}
  m_PrefabAsset: {fileID: 0}
  m_GameObject: {fileID: 2905397772639716118}
  m_Enabled: 1
  m_CastShadows: 0
  m_ReceiveShadows: 0
  m_DynamicOccludee: 1
  m_MotionVectors: 1
  m_LightProbeUsage: 0
  m_ReflectionProbeUsage: 0
  m_RenderingLayerMask: 4294967295
  m_RendererPriority: 0
  m_Materials:
  - {fileID: 0}
  m_StaticBatchInfo:
    firstSubMesh: 0
    subMeshCount: 0
  m_StaticBatchRoot: {fileID: 0}
  m_ProbeAnchor: {fileID: 0}
  m_LightProbeVolumeOverride: {fileID: 0}
  m_ScaleInLightmap: 1
  m_PreserveUVs: 0
  m_IgnoreNormalsForChartDetection: 0
  m_ImportantGI: 0
  m_StitchLightmapSeams: 0
  m_SelectedEditorRenderState: 0
  m_MinimumChartSize: 4
  m_AutoUVMaxDistance: 0.5
  m_AutoUVMaxAngle: 89
  m_LightmapParameters: {fileID: 0}
  m_SortingLayerID: 0
  m_SortingLayer: 0
  m_SortingOrder: 0
  m_Sprite: {fileID: 21300000, guid: c3c34e396a46f4439925b24e67779a5d, type: 3}
  m_Color: {r: 1, g: 1, b: 1, a: 1}
  m_FlipX: 0
  m_FlipY: 0
  m_DrawMode: 0
  m_Size: {x: 1, y: 1}
  m_AdaptiveModeThreshold: 0.5
  m_SpriteTileMode: 0
  m_WasSpriteAssigned: 1
  m_MaskInteraction: 0
  m_SpriteSortPoint: 0
--- !u!61 &6959059723096168660
BoxCollider2D:
  m_ObjectHideFlags: 0
  m_CorrespondingSourceObject: {fileID: 0}
  m_PrefabInstance: {fileID: 0}
  m_PrefabAsset: {fileID: 0}
  m_GameObject: {fileID: 2905397772639716118}
  m_Enabled: 1
  m_Density: 1
  m_Material: {fileID: 0}
  m_IsTrigger: 0
  m_UsedByEffector: 0
  m_UsedByComposite: 0
  m_Offset: {x: 0, y: 0}
  m_SpriteTilingProperty:
    border: {x: 0, y: 0, z: 0, w: 0}
    pivot: {x: 0.5, y: 0.5}
    oldSize: {x: 1, y: 1}
    newSize: {x: 1, y: 1}
    adaptiveTilingThreshold: 0.5
    drawMode: 0
    adaptiveTiling: 0
  m_AutoTiling: 0
  serializedVersion: 2
  m_Size: {x: 1, y: 1}
  m_EdgeRadius: 0
--- !u!114 &2352865161526626103
MonoBehaviour:
  m_ObjectHideFlags: 0
  m_CorrespondingSourceObject: {fileID: 0}
  m_PrefabInstance: {fileID: 0}
  m_PrefabAsset: {fileID: 0}
  m_GameObject: {fileID: 2905397772639716118}
  m_Enabled: 1
  m_EditorHideFlags: 0
  m_Script: {fileID: 11500000, guid: ff4771b6e7fe4d94386e5e3f8337a89a, type: 3}
  m_Name: 
  m_EditorClassIdentifier: 
  id: 0
  gridPos: {x: 0, y: 0}
